{
    "questions":[

        {
            "answers": [
                "2016",
                "2012",
                "2013",
                "2017"
            ],
            "solution": 0,
            "text": "When was Trump elected president?"
        },
        {
            "answers": [
                "Roosvelt",
                "Truman",
                "Eisenhower",
                "Nixon"
            ],
            "solution": 3,
            "text": "Which president nuked japan?"
        }
    ]
}
